{
    "secret":{
        "key":"111fa7755550cda23d4d51c758036817"
    },
    "dbChain":"mongodb+srv://admin:admin@cluster0.hzyhg.mongodb.net/manejadorapp?retryWrites=true&w=majority",
    "paginate":{
        "size":3
    }
}